{
    "architectures": ["amd64", "arm64"],
    "author": "DANBER",
    "languages": ["xx"],
    "name": {
      "xx": "Babbel and Ihrs"
    },
    "description_short": {
      "xx": "Interface demo for ROS2"
    },
    "description_long": {
      "xx": "Demo ROS2 interface for Jaco, originally from the <i>RoboJack</i> project. This isn't a standalone skill, please check the instructions from the linked repository's readme."
    },
    "symbol": "robot.png",
    "color": "#ff8200"
  }
  